<?xml version="1.0" encoding="utf-8"?>
<!-- Generator: Adobe Illustrator 16.0.0, SVG Export Plug-In . SVG Version: 6.00 Build 0)  -->
<!DOCTYPE svg PUBLIC "-//W3C//DTD SVG 1.1//EN" "http://www.w3.org/Graphics/SVG/1.1/DTD/svg11.dtd">
<svg version="1.1" id="Layer_9" xmlns="http://www.w3.org/2000/svg" xmlns:xlink="http://www.w3.org/1999/xlink" x="0px" y="0px"
	 width="14px" height="8.414px" viewBox="0 0 14 8.414" enable-background="new 0 0 14 8.414" xml:space="preserve">
<polygon points="8.414,7 14,1.414 12.586,0 7,5.586 1.414,0 0,1.414 5.586,7 7,8.414 "/>
</svg>
