<?xml version="1.0" encoding="utf-8"?>
<!-- Generator: Adobe Illustrator 16.0.0, SVG Export Plug-In . SVG Version: 6.00 Build 0)  -->
<!DOCTYPE svg PUBLIC "-//W3C//DTD SVG 1.1//EN" "http://www.w3.org/Graphics/SVG/1.1/DTD/svg11.dtd">
<svg version="1.1" id="Layer_3" xmlns="http://www.w3.org/2000/svg" xmlns:xlink="http://www.w3.org/1999/xlink" x="0px" y="0px"
	 width="16px" height="16.785px" viewBox="0 0 16 16.785" enable-background="new 0 0 16 16.785" xml:space="preserve">
<g>
	<g>
		<path d="M5.956,16.785c-0.522,0-1.015-0.244-1.333-0.664l-4.285-5.656C-0.218,9.728-0.073,8.68,0.663,8.122
			C1.4,7.564,2.447,7.711,3.004,8.446l2.817,3.722l7.088-11.38c0.487-0.782,1.518-1.022,2.303-0.535
			c0.783,0.488,1.022,1.519,0.535,2.303l-8.372,13.44c-0.291,0.469-0.793,0.762-1.343,0.787C6.006,16.785,5.981,16.785,5.956,16.785
			z"/>
	</g>
</g>
</svg>
