<?xml version="1.0" encoding="utf-8"?>
<!-- Generator: Adobe Illustrator 16.0.0, SVG Export Plug-In . SVG Version: 6.00 Build 0)  -->
<!DOCTYPE svg PUBLIC "-//W3C//DTD SVG 1.1//EN" "http://www.w3.org/Graphics/SVG/1.1/DTD/svg11.dtd">
<svg version="1.1" id="Capa_1" xmlns="http://www.w3.org/2000/svg" xmlns:xlink="http://www.w3.org/1999/xlink" x="0px" y="0px"
	 width="10.813px" height="20px" viewBox="42.655 38.062 10.813 20" enable-background="new 42.655 38.062 10.813 20"
	 xml:space="preserve">
<g>
	<path fill="#FCFCFC" d="M53.061,38.066l-2.594-0.004c-2.914,0-4.796,1.932-4.796,4.922v2.27h-2.608
		c-0.225,0-0.408,0.184-0.408,0.408v3.288c0,0.226,0.184,0.407,0.408,0.407h2.608v8.297c0,0.226,0.182,0.408,0.408,0.408h3.401
		c0.226,0,0.407-0.184,0.407-0.408v-8.297h3.05c0.227,0,0.407-0.183,0.407-0.407l0.002-3.288c0-0.107-0.043-0.212-0.12-0.289
		c-0.076-0.077-0.18-0.12-0.288-0.12h-3.051v-1.924c0-0.925,0.221-1.394,1.425-1.394h1.748c0.226,0,0.407-0.184,0.407-0.408v-3.053
		C53.468,38.249,53.286,38.066,53.061,38.066z"/>
</g>
</svg>
