<?xml version="1.0" encoding="utf-8"?>
<!-- Generator: Adobe Illustrator 16.0.0, SVG Export Plug-In . SVG Version: 6.00 Build 0)  -->
<!DOCTYPE svg PUBLIC "-//W3C//DTD SVG 1.1//EN" "http://www.w3.org/Graphics/SVG/1.1/DTD/svg11.dtd">
<svg version="1.1" id="Layer_3" xmlns="http://www.w3.org/2000/svg" xmlns:xlink="http://www.w3.org/1999/xlink" x="0px" y="0px"
	 width="100px" height="28.001px" viewBox="2 2 100 28.001" enable-background="new 2 2 100 28.001" xml:space="preserve">
<g>
	<g>
		<path d="M2.974,3.052v2.591h2.909v0.903H2.974v4.326H2V2.15h3.975v0.902H2.974z"/>
		<path d="M10.34,7.344c0,0.647-0.023,1.388,0.382,1.943c0.382,0.532,1.124,0.833,1.761,0.833c0.626,0,1.31-0.289,1.715-0.775
			c0.463-0.555,0.429-1.319,0.429-2.001V2.15H15.6v5.46c0,0.948-0.069,1.7-0.765,2.417c-0.603,0.648-1.472,0.995-2.353,0.995
			c-0.823,0-1.668-0.313-2.259-0.891C9.459,9.403,9.366,8.604,9.366,7.61V2.15h0.974V7.344z"/>
		<path d="M21.494,10.872H20.52v-7.82h-2.109V2.15h5.214v0.902h-2.132L21.494,10.872L21.494,10.872z"/>
		<path d="M27.423,7.344c0,0.647-0.023,1.388,0.382,1.943c0.383,0.532,1.124,0.833,1.762,0.833c0.625,0,1.31-0.289,1.715-0.775
			c0.463-0.555,0.428-1.319,0.428-2.001V2.15h0.974v5.46c0,0.948-0.069,1.7-0.765,2.417c-0.602,0.648-1.472,0.995-2.352,0.995
			c-0.823,0-1.669-0.313-2.26-0.891C26.542,9.402,26.45,8.604,26.45,7.61V2.15h0.974L27.423,7.344L27.423,7.344z"/>
		<path d="M37.232,10.872h-0.974V2.15h1.263c1.657,0,3.199,0.439,3.199,2.406c0,1.341-0.846,2.29-2.19,2.406l2.781,3.91h-1.194
			l-2.642-3.829h-0.243V10.872z M37.232,6.187h0.301c1.101,0,2.213-0.208,2.213-1.562c0-1.434-1.054-1.573-2.225-1.573h-0.29
			L37.232,6.187L37.232,6.187z"/>
		<path d="M44.389,2.15h4.531v0.902h-3.557v2.591h3.453v0.903h-3.453v3.423h3.557v0.902h-4.531V2.15z"/>
		<path d="M58.821,10.872h-0.974V2.15h1.263c1.657,0,3.199,0.439,3.199,2.406c0,1.341-0.846,2.29-2.19,2.406l2.781,3.91h-1.194
			l-2.642-3.829h-0.243V10.872z M58.821,6.187h0.301c1.101,0,2.213-0.208,2.213-1.562c0-1.434-1.054-1.573-2.225-1.573h-0.29
			L58.821,6.187L58.821,6.187z"/>
		<path d="M74.646,6.523c0,2.509-2.062,4.499-4.554,4.499s-4.554-1.99-4.554-4.499C65.538,4.024,67.6,2,70.092,2
			S74.646,4.024,74.646,6.523z M66.511,6.511c0,1.966,1.599,3.608,3.581,3.608s3.58-1.643,3.58-3.608
			c0-1.979-1.574-3.609-3.58-3.609C68.087,2.902,66.511,4.533,66.511,6.511z"/>
		<path d="M86.483,6.523c0,2.509-2.063,4.499-4.555,4.499c-2.492,0-4.554-1.99-4.554-4.499C77.375,4.024,79.437,2,81.928,2
			S86.483,4.024,86.483,6.523z M78.348,6.511c0,1.966,1.599,3.608,3.581,3.608s3.58-1.643,3.58-3.608
			c0-1.979-1.574-3.609-3.58-3.609S78.348,4.533,78.348,6.511z"/>
		<path d="M91.968,10.872h-0.973v-7.82h-2.108V2.15h5.215v0.902h-2.134V10.872z"/>
		<path d="M100.91,3.851c-0.348-0.602-0.766-0.948-1.505-0.948c-0.776,0-1.448,0.555-1.448,1.353c0,0.752,0.776,1.099,1.367,1.365
			l0.579,0.254C101.037,6.372,102,6.938,102,8.327c0,1.527-1.229,2.695-2.746,2.695c-1.401,0-2.444-0.902-2.725-2.256L97.481,8.5
			c0.127,0.891,0.812,1.62,1.75,1.62c0.937,0,1.794-0.717,1.794-1.701c0-1.018-0.799-1.364-1.609-1.735l-0.533-0.231
			c-1.02-0.462-1.899-0.982-1.899-2.231C96.983,2.867,98.128,2,99.428,2c0.972,0,1.794,0.497,2.259,1.353L100.91,3.851z"/>
	</g>
	<g>
		<path d="M30.889,29.684h-2.264l-4.408-6.323h-0.774v6.323h-1.866V14.739h2.264c1.331,0,2.76,0.02,3.951,0.694
			c1.251,0.733,1.966,2.14,1.966,3.567c0,2.141-1.43,3.924-3.594,4.182L30.889,29.684z M23.442,21.815h0.596
			c1.906,0,3.971-0.356,3.971-2.735c0-2.338-2.224-2.676-4.071-2.676h-0.497L23.442,21.815L23.442,21.815z"/>
		<path d="M35.971,25.938l-1.708,3.747h-2.006l7.148-15.579l7.148,15.579h-2.005l-1.708-3.747H35.971z M39.406,18.188l-2.661,6.045
			h5.322L39.406,18.188z"/>
		<path d="M49.134,14.739h3.098c4.586,0,8.399,2.418,8.399,7.393c0,5.094-3.733,7.552-8.458,7.552h-3.038L49.134,14.739
			L49.134,14.739z M51,27.979h0.655c3.813,0,7.108-1.428,7.108-5.768c0-4.361-3.296-5.768-7.108-5.768H51V27.979z"/>
		<path d="M65.792,29.684h-1.866V14.739h1.866V29.684z"/>
		<path d="M84.714,22.212c0,4.439-3.514,7.79-7.844,7.79c-4.328,0-7.843-3.35-7.843-7.79c0-4.281,3.554-7.789,7.843-7.789
			S84.714,17.931,84.714,22.212z M82.848,22.212c0-3.291-2.462-6.045-5.978-6.045c-3.515,0-5.977,2.755-5.977,6.045
			c0,3.409,2.74,6.045,5.977,6.045C80.108,28.257,82.848,25.621,82.848,22.212z"/>
	</g>
	<g>
		<g opacity="0.6">
			<path d="M99.362,18.158c0.994,1.366,1.47,3.431,1.47,5.102c0,1.711-0.406,3.938-1.47,5.324l-1.104-0.627
				c0.812-1.225,1.166-3.126,1.166-4.575c0-1.559-0.334-3.259-1.166-4.596L99.362,18.158z"/>
		</g>
		<g opacity="0.4">
			<path d="M93.294,18.158c0.994,1.366,1.472,3.431,1.472,5.102c0,1.711-0.406,3.938-1.472,5.324l-1.104-0.627
				c0.812-1.225,1.166-3.126,1.166-4.575c0-1.559-0.334-3.259-1.166-4.596L93.294,18.158z"/>
		</g>
	</g>
	<g>
		<g opacity="0.6">
			<path d="M5.419,18.785c-0.831,1.336-1.165,3.037-1.165,4.596c0,1.448,0.354,3.35,1.165,4.574l-1.105,0.627
				c-1.064-1.384-1.47-3.612-1.47-5.323c0-1.67,0.477-3.735,1.47-5.102L5.419,18.785z"/>
		</g>
		<g opacity="0.4">
			<path d="M11.487,18.785c-0.831,1.336-1.165,3.037-1.165,4.596c0,1.448,0.354,3.35,1.165,4.574l-1.105,0.627
				c-1.065-1.384-1.47-3.612-1.47-5.323c0-1.67,0.477-3.735,1.47-5.102L11.487,18.785z"/>
		</g>
	</g>
</g>
</svg>
